Categories:Internet
License:Apache-2.0
Web Site:
Source Code:https://github.com/slartus/4pdaClient-plus
Issue Tracker:https://github.com/slartus/4pdaClient-plus/issues

Auto Name:ForPDA
Summary:Client for 4pda.ru
Description:
Client companion for the 4pda.ru forum.
.

Repo Type:git
Repo:https://github.com/slartus/4pdaClient-plus

Build:2.3beta3,458
    disable=this is not maintainable
    commit=2.3beta3
    srclibs=JSoup@jsoup-1.7.3,ApacheHttpClient@4.1.2,ImageLoader@v1.9.1
    rm=libs/jsoup-1.7.3.jar,libs/universal-image-loader-1.9.1.jar,libs/apache/httpclient-4.1.2.jar,libs/apache/httpmime-4.1.2.jar
    prebuild=pushd $$JSoup$$ && \
        $$MVN3$$ package && \
        popd && \
        cp $$JSoup$$/target/jsoup-1.7.3.jar libs/ && \
        pushd $$ImageLoader$$ && \
        $$MVN3$$ package && \
        popd && \
        cp $$ImageLoader$$/target/universal-image-loader-1.9.1.jar libs/ && \
        pushd $$ApacheHttpClient$$/httpclient/ && \
        $$MVN3$$ package && \
        popd && \
        pushd $$ApacheHttpClient$$/httpmime/ && \
        $$MVN3$$ package && \
        popd && \
        cp $$ApacheHttpClient$$/httpclient/target/httpclient-4.1.2.jar $$ApacheHttpClient$$/httpmime/target/httpmime-4.1.2.jar libs/apache/ && \
        rm build.xml && \
        android update project -p . -t "android-19" && \
        echo -e 'java.source=1.7\njava.target=1.7\n' | tee Externals/SqliteAnnotations/src/main/ant.properties > ant.properties && \
        echo -e "android.library.reference.1=Externals/4pdaApi" >> project.properties && \
        echo -e "android.library.reference.2=Externals/4pdaCommon" >> project.properties && \
        echo -e "android.library.reference.3=Externals/4pdaNotifyService" >> project.properties && \
        echo -e "android.library.reference.4=Externals/4pdaSources" >> project.properties && \
        echo -e "android.library.reference.5=Externals/ActionBar-PullToRefresh" >> project.properties && \
        echo -e "android.library.reference.6=Externals/NewQuickAction3D-master" >> project.properties && \
        echo -e "android.library.reference.7=Externals/QuickPost" >> project.properties && \
        echo -e "android.library.reference.8=Externals/SqliteAnnotations/src/main" >> project.properties && \
        echo -e "android.library.reference.9=Externals/android-sqlite-asset-helper-master/core" >> project.properties && \
        echo -e "android.library.reference.10=Externals/chrisbanes-Android-PullToRefresh" >> project.properties
    target=android-19

Build:2.3,459
    commit=dcd069fe1a0f2ad94d39c3360ccf88c00feefa06
    subdir=app
    gradle=yes
    forceversion=yes
    forcevercode=yes

Build:2.4b5,500
    commit=9f672b5bba8f244ee3b58041a59712622e0d1a41
    subdir=app
    gradle=yes

Build:2.4,501
    commit=0974170a4066fd599f17a97673c02fbf92cf6b2f
    subdir=app
    gradle=yes

Build:2.5.1,520
    commit=2.5.1
    subdir=app
    gradle=yes

Build:2.5.2,522
    commit=f1c2687b674581c45ba8231cb235f791b75bcba7
    subdir=app
    gradle=yes

Build:2.5.5,525
    commit=65f329b2689ccc625fabc6769dbb7ad1e2382c8f
    subdir=app
    gradle=yes

Build:2.5.6,526
    commit=2.5.6
    subdir=app
    gradle=yes

Build:3.0.2,530
    commit=5a682243bfc3ee6ac8abfd4dd6833b837f01b75e
    subdir=app
    gradle=yes

Build:3.0.9,537
    commit=d30d5e36b409338ce6e2c98b22956f91c437ae81
    subdir=app
    gradle=yes

Build:3.1.0,538
    commit=d9429f9c7d816790d7f8046f4f807979a6e1d71b
    subdir=app
    gradle=yes

Build:3.1.1,539
    disable=material-dialogs gone from maven repo
    commit=2b2b8078b640e17c6c5453e034b70f58bddd9708
    subdir=app
    gradle=yes

Build:3.1.2,540
    disable=material-dialogs gone from maven repo
    commit=1e1f425350b6cbe62a7b2615b25a38642db3bbe6
    subdir=app
    gradle=yes

Build:3.1.3,541
    disable=material-dialogs gone from maven repo
    commit=a28b162af41158fac7a891e5e259c193ec8a61ce
    subdir=app
    gradle=yes

Build:3.1.4b3,543
    commit=16a6ca3346de7811394d34eed254ff04751f013e
    subdir=app
    gradle=yes

Build:3.1.4b4,545
    commit=5cebc772e71e046311d9a85f46c87de7553a0a07
    subdir=app
    gradle=yes

Build:3.2.2,561
    disable=crashlytics
    commit=3.2.2
    subdir=app
    gradle=rel
    prebuild=sed -i -e '/buildTypes {/i/*' -e '/productFlavors/i*/' -e '/defaultSigningVariable/d'  build.gradle

Build:3.2.9,568
    commit=da0803cc70722221d10fc3a1d195ebe6d7986a93
    subdir=app
    gradle=rel
    prebuild=sed -i -e '/buildTypes {/i/*' -e '/productFlavors/i*/' -e '/defaultSigningVariable/d'  build.gradle && \
        mv src/main/res/lang/strings.xml src/main/res/values/strings.xml && \
        echo "android { lintOptions { abortOnError false } }" >> build.gradle

Build:3.4.0,579
    commit=003e01c8709e3c2d0e9a39c945720acf02f80b79
    subdir=app
    gradle=rel
    prebuild=sed -i -e '/signingConfigs {/,+11d' -e '/defaultSigningVariable/d' build.gradle

Build:3.4.8,594
    commit=3.4.8
    subdir=app
    gradle=rel
    prebuild=sed -i -e '/applicationVariants.all/,+8d' -e '/signingConfigs {/,+11d' -e '/defaultSigningVariable/d' build.gradle

Build:3.4.8.1,595
    commit=3.4.8.1
    subdir=app
    gradle=rel
    prebuild=sed -i -e '/applicationVariants.all/,+8d' -e '/signingConfigs {/,+11d' -e '/defaultSigningVariable/d' build.gradle

Build:3.4.8.2,596
    commit=3.4.8.2
    subdir=app
    gradle=rel
    prebuild=sed -i -e '/applicationVariants.all/,+8d' -e '/signingConfigs {/,+11d' -e '/defaultSigningVariable/d' build.gradle

Auto Update Mode:None
Update Check Mode:HTTP
Update Check Data:https://raw.githubusercontent.com/slartus/4pdaClient-plus/master/app/build.gradle|def appVersionCode = (.*)|.|def appVersionName = (.*)
Current Version:"3.5.2"
Current Version Code:606
